[gd_scene load_steps=2 format=2]

[ext_resource path="res://Art/Scenery/Lightpost.png" type="Texture" id=1]

[node name="Lightpost" type="Sprite"]
scale = Vector2( 0.5, 0.5 )
texture = ExtResource( 1 )
