[gd_scene load_steps=6 format=2]

[ext_resource path="res://Chunks/Scenery.gd" type="Script" id=1]
[ext_resource path="res://Art/Scenery/Tree_2.png" type="Texture" id=2]
[ext_resource path="res://Art/Scenery/Tree_1.png" type="Texture" id=3]
[ext_resource path="res://Art/Scenery/Tree_3.png" type="Texture" id=4]
[ext_resource path="res://Art/Scenery/Tree_0.png" type="Texture" id=5]

[node name="Tree" type="Sprite"]
scale = Vector2( 0.5, 0.5 )
texture = ExtResource( 5 )
offset = Vector2( 0, -210 )
script = ExtResource( 1 )
gameSprites = [ ExtResource( 5 ), ExtResource( 3 ), ExtResource( 2 ), ExtResource( 4 ) ]
maxScale = 0.9
