[gd_scene load_steps=3 format=2]

[ext_resource path="res://Scrollable.gd" type="Script" id=1]
[ext_resource path="res://Art/Clouds/Cloud_1.png" type="Texture" id=2]

[node name="Cloud1" type="Sprite"]
texture = ExtResource( 2 )
script = ExtResource( 1 )
width = 256.0
