[gd_scene load_steps=7 format=2]

[ext_resource path="res://Scrollable.gd" type="Script" id=1]
[ext_resource path="res://Chunks/Tileset.tres" type="TileSet" id=2]
[ext_resource path="res://Vignettes/Vignette.tscn" type="PackedScene" id=3]
[ext_resource path="res://Art/Grass.png" type="Texture" id=4]
[ext_resource path="res://Objects/Lightpost.tscn" type="PackedScene" id=5]
[ext_resource path="res://Objects/Tree.tscn" type="PackedScene" id=6]

[node name="Chunk" type="Node2D"]
script = ExtResource( 1 )

[node name="Lightpost" parent="." instance=ExtResource( 5 )]
position = Vector2( 768, 432 )

[node name="Tree" parent="." instance=ExtResource( 6 )]
position = Vector2( 424, 512 )

[node name="Tree2" parent="." instance=ExtResource( 6 )]
position = Vector2( 624, 512 )

[node name="Tree3" parent="." instance=ExtResource( 6 )]
position = Vector2( 888, 512 )

[node name="Vignette" parent="." instance=ExtResource( 3 )]

[node name="Grass" type="Sprite" parent="."]
position = Vector2( 512, 524 )
scale = Vector2( 1.06667, 1.25 )
texture = ExtResource( 4 )

[node name="TileMap" type="TileMap" parent="."]
tile_set = ExtResource( 2 )
cell_size = Vector2( 128, 128 )
format = 1
tile_data = PoolIntArray( 196608, 0, 0, 196609, 0, 0, 196610, 0, 0, 196611, 0, 0, 196612, 0, 0, 196613, 0, 0, 196614, 0, 0, 196615, 0, 0 )
