[gd_scene load_steps=10 format=2]

[ext_resource path="res://Vignettes/Vignette.gd" type="Script" id=1]
[ext_resource path="res://Vignettes/House_0.tscn" type="PackedScene" id=2]
[ext_resource path="res://Vignettes/House_1.tscn" type="PackedScene" id=3]
[ext_resource path="res://Art/Vignettes/House_Pink_Base.png" type="Texture" id=4]
[ext_resource path="res://Vignettes/Car_0.tscn" type="PackedScene" id=5]
[ext_resource path="res://Vignettes/Car_2.tscn" type="PackedScene" id=6]
[ext_resource path="res://Vignettes/Car_1.tscn" type="PackedScene" id=7]
[ext_resource path="res://Vignettes/Coffee_0.tscn" type="PackedScene" id=8]
[ext_resource path="res://Vignettes/Coffee_1.tscn" type="PackedScene" id=9]

[node name="Vignette" type="Node2D"]
position = Vector2( 168, 384 )
script = ExtResource( 1 )
vignettes = [ ExtResource( 2 ), ExtResource( 3 ), ExtResource( 5 ), ExtResource( 7 ), ExtResource( 6 ), ExtResource( 8 ), ExtResource( 9 ) ]

[node name="House_Pink_Base" type="Sprite" parent="."]
texture = ExtResource( 4 )
