[gd_scene load_steps=3 format=2]

[ext_resource path="res://Art/UI/Volume_On.png" type="Texture" id=1]
[ext_resource path="res://Art/UI/Volume_Off.png" type="Texture" id=2]

[node name="AudioToggle" type="TextureButton"]
margin_left = 888.0
margin_right = 1063.0
margin_bottom = 150.0
rect_scale = Vector2( 0.4, 0.4 )
toggle_mode = true
texture_normal = ExtResource( 1 )
texture_pressed = ExtResource( 2 )
__meta__ = {
"_edit_use_anchors_": false
}
